{
    "response": {
        "status": "ok",
        "userTier": "developer",
        "total": 3748,
        "startIndex": 1,
        "pageSize": 10,
        "currentPage": 1,
        "pages": 375,
        "orderBy": "newest",
        "results": [
            {
                "id": "politics/2018/dec/31/in-2019-the-uk-will-start-a-new-chapter-says-theresa-may",
                "type": "article",
                "sectionId": "politics",
                "sectionName": "Politics",
                "webPublicationDate": "2018-12-31T22:30:02Z",
                "webTitle": "Theresa May urges MPs to back Brexit deal in new year message",
                "webUrl": "https://www.theguardian.com/politics/2018/dec/31/in-2019-the-uk-will-start-a-new-chapter-says-theresa-may",
                "apiUrl": "https://content.guardianapis.com/politics/2018/dec/31/in-2019-the-uk-will-start-a-new-chapter-says-theresa-may",
                "isHosted": false,
                "pillarId": "pillar/news",
                "pillarName": "News"
            },
            {
                "id": "politics/2018/dec/31/no-deal-brexit-ferries-who-gets-funds-and-how-was-contract-awarded",
                "type": "article",
                "sectionId": "politics",
                "sectionName": "Politics",
                "webPublicationDate": "2018-12-31T18:09:23Z",
                "webTitle": "No-deal Brexit ferries: who gets funds and how was contract awarded?",
                "webUrl": "https://www.theguardian.com/politics/2018/dec/31/no-deal-brexit-ferries-who-gets-funds-and-how-was-contract-awarded",
                "apiUrl": "https://content.guardianapis.com/politics/2018/dec/31/no-deal-brexit-ferries-who-gets-funds-and-how-was-contract-awarded",
                "isHosted": false,
                "pillarId": "pillar/news",
                "pillarName": "News"
            },
            {
                "id": "politics/2018/dec/31/brexit-will-not-unite-a-divided-nation",
                "type": "article",
                "sectionId": "politics",
                "sectionName": "Politics",
                "webPublicationDate": "2018-12-31T17:17:40Z",
                "webTitle": "Brexit will not unite a divided nation | Letters",
                "webUrl": "https://www.theguardian.com/politics/2018/dec/31/brexit-will-not-unite-a-divided-nation",
                "apiUrl": "https://content.guardianapis.com/politics/2018/dec/31/brexit-will-not-unite-a-divided-nation",
                "isHosted": false,
                "pillarId": "pillar/news",
                "pillarName": "News"
            },
            {
                "id": "politics/2018/dec/31/labour-activists-gear-up-for-second-referendum-push",
                "type": "article",
                "sectionId": "politics",
                "sectionName": "Politics",
                "webPublicationDate": "2018-12-31T14:17:12Z",
                "webTitle": "Labour activists gear up for second referendum push",
                "webUrl": "https://www.theguardian.com/politics/2018/dec/31/labour-activists-gear-up-for-second-referendum-push",
                "apiUrl": "https://content.guardianapis.com/politics/2018/dec/31/labour-activists-gear-up-for-second-referendum-push",
                "isHosted": false,
                "pillarId": "pillar/news",
                "pillarName": "News"
            },
            {
                "id": "politics/2018/dec/31/brexit-ferry-firm-seaborne-says-it-will-be-up-and-running-before-end-of-march",
                "type": "article",
                "sectionId": "politics",
                "sectionName": "Politics",
                "webPublicationDate": "2018-12-31T13:08:11Z",
                "webTitle": "Brexit ferry firm says it will be up and running before end of March",
                "webUrl": "https://www.theguardian.com/politics/2018/dec/31/brexit-ferry-firm-seaborne-says-it-will-be-up-and-running-before-end-of-march",
                "apiUrl": "https://content.guardianapis.com/politics/2018/dec/31/brexit-ferry-firm-seaborne-says-it-will-be-up-and-running-before-end-of-march",
                "isHosted": false,
                "pillarId": "pillar/news",
                "pillarName": "News"
            },
            {
                "id": "politics/2018/dec/31/theresa-may-talking-eu-leaders-hope-brexit-commons-vote",
                "type": "article",
                "sectionId": "politics",
                "sectionName": "Politics",
                "webPublicationDate": "2018-12-31T12:59:24Z",
                "webTitle": "May is still talking to EU leaders in hope of Brexit reassurance",
                "webUrl": "https://www.theguardian.com/politics/2018/dec/31/theresa-may-talking-eu-leaders-hope-brexit-commons-vote",
                "apiUrl": "https://content.guardianapis.com/politics/2018/dec/31/theresa-may-talking-eu-leaders-hope-brexit-commons-vote",
                "isHosted": false,
                "pillarId": "pillar/news",
                "pillarName": "News"
            },
            {
                "id": "politics/2018/dec/31/record-number-of-britons-seeking-irish-passports-ahead-of-brexit",
                "type": "article",
                "sectionId": "politics",
                "sectionName": "Politics",
                "webPublicationDate": "2018-12-31T11:43:26Z",
                "webTitle": "Record number of Britons seek Irish passports before Brexit",
                "webUrl": "https://www.theguardian.com/politics/2018/dec/31/record-number-of-britons-seeking-irish-passports-ahead-of-brexit",
                "apiUrl": "https://content.guardianapis.com/politics/2018/dec/31/record-number-of-britons-seeking-irish-passports-ahead-of-brexit",
                "isHosted": false,
                "pillarId": "pillar/news",
                "pillarName": "News"
            },
            {
                "id": "politics/2018/dec/30/no-deal-brexit-ferry-company-owns-no-ships-and-has-never-run-ferry-service",
                "type": "article",
                "sectionId": "politics",
                "sectionName": "Politics",
                "webPublicationDate": "2018-12-30T21:32:00Z",
                "webTitle": "No-deal Brexit ferry company owns no ships and has never run Channel service",
                "webUrl": "https://www.theguardian.com/politics/2018/dec/30/no-deal-brexit-ferry-company-owns-no-ships-and-has-never-run-ferry-service",
                "apiUrl": "https://content.guardianapis.com/politics/2018/dec/30/no-deal-brexit-ferry-company-owns-no-ships-and-has-never-run-ferry-service",
                "isHosted": false,
                "pillarId": "pillar/news",
                "pillarName": "News"
            },
            {
                "id": "politics/2018/dec/30/food-prices-to-finance-what-a-no-deal-brexit-could-mean-for-britain",
                "type": "article",
                "sectionId": "politics",
                "sectionName": "Politics",
                "webPublicationDate": "2018-12-30T14:56:15Z",
                "webTitle": "Food prices to finance: what a no-deal Brexit could mean for Britain",
                "webUrl": "https://www.theguardian.com/politics/2018/dec/30/food-prices-to-finance-what-a-no-deal-brexit-could-mean-for-britain",
                "apiUrl": "https://content.guardianapis.com/politics/2018/dec/30/food-prices-to-finance-what-a-no-deal-brexit-could-mean-for-britain",
                "isHosted": false,
                "pillarId": "pillar/news",
                "pillarName": "News"
            },
            {
                "id": "politics/2018/dec/30/brexit-eu-deal-uk-needs-to-get-its-act-together-jean-cleaude-juncker",
                "type": "article",
                "sectionId": "politics",
                "sectionName": "Politics",
                "webPublicationDate": "2018-12-30T11:49:32Z",
                "webTitle": "UK needs to get its act together before Brexit vote, Juncker says",
                "webUrl": "https://www.theguardian.com/politics/2018/dec/30/brexit-eu-deal-uk-needs-to-get-its-act-together-jean-cleaude-juncker",
                "apiUrl": "https://content.guardianapis.com/politics/2018/dec/30/brexit-eu-deal-uk-needs-to-get-its-act-together-jean-cleaude-juncker",
                "isHosted": false,
                "pillarId": "pillar/news",
                "pillarName": "News"
            }
        ]
    }
}